{
  "app":{
    "engine":{
      "finish_cond":{
        "type":"time",
        "value":200
      },
      "system":{
        "type":"queue",
        "config":{
          "service_centers":[
            {
              "name":"arrival_service_center",
              "servers":[
                {
                  "name":"arrival_server",
                  "capacity":1,
                  "service_time_distribution":{"type":"normal", "attrs":{"mean":4,"std":0.5}}
                }
              ]
            },
            {
              "name":"simple_service_center",
              "servers":[
                {
                  "name":"simple_server",
                  "capacity":1,
                  "service_time_distribution":{"type":"normal", "attrs":{"mean":2,"std":0.5}}
                }
              ]
            },
            {
              "name":"callcenter_service_center",
              "servers":[
                {
                  "name":"able",
                  "capacity":1,
                  "service_time_distribution":{"type":"normal", "attrs":{"mean":50,"std":5}}
                },
                {
                  "name":"baker",
                  "capacity":1,
                  "service_time_distribution":{"type":"normal", "attrs":{"mean":3.5,"std":1}}
                }
              ],
              "server_selection_strategy":{
                "type":"lambda",
                "condition":"{ |a, b| if a.name == 'able' && !a.busy? then 1 elsif b.name == 'able' && !b.busy? then -1 elsif !a.busy? then 1 elsif !b.busy? then -1 elsif a.becomes_idle < b.becomes_idle then 1 elsif b.becomes_idle < a.becomes_idle then -1 end }"
              }
            }
          ],
          "events":{
            "arrival":[
              {"type":"create_entity", "attrs":{}},
              {"type":"arrival", "attrs":{"service_center":"arrival_service_center", "output_event":"delegate"}},
              {"type":"generate_arrival_event", "attrs":{"interarrival_distribution":{"type":"normal", "attrs":{"mean":8,"std":5}}}}
            ],
            "departure":[
              {"type":"departure", "attrs":{"service_center":"callcenter_service_center", "output_event":"departure"}},
              {"type":"statistics", "attrs":{"service_centers":[{"name":"arrival_service_center"},{"name":"simple_service_center"},{"name":"callcenter_service_center"}]}}
            ],
            "delegate":[
              {"type":"delegate", "attrs":{"in_service_center":"arrival_service_center", "out_service_center":"simple_service_center",
                "output_event":"delegate"}},
              {"type":"delegate", "attrs":{"in_service_center":"simple_service_center", "out_service_center":"callcenter_service_center",
                "output_event":"departure"}}
            ]
          },
          "first_event":{
            "type":"arrival",
            "time":0
          }
        }
      }
    }
  }
}