{
  "app":{
    "engine":{
      "finish_cond":{
        "type":"time",
        "value":20000
      },
      "system":{
        "type":"queue",
        "config":{
          "service_centers":[
            {
              "name":"service_center1",
              "servers":[
                {
                  "name":"self_service",
                  "capacity":1,
                  "service_time_distribution":{"type":"normal", "attrs":{"mean":0,"std":0}}
                }
              ]
            },
            {
              "name":"service_center2",
              "servers":[
                {
                  "name":"clerk1",
                  "capacity":1,
                  "service_time_distribution":{"type":"normal", "attrs":{"mean":3,"std":0}}
                },
                {
                  "name":"clerk2",
                  "capacity":1,
                  "service_time_distribution":{"type":"normal", "attrs":{"mean":3,"std":0}}
                },
                {
                  "name":"clerk3",
                  "capacity":1,
                  "service_time_distribution":{"type":"normal", "attrs":{"mean":3,"std":0}}
                }
              ]
            },
            {
              "name":"service_center_3",
              "servers":[
                {
                  "name":"cashier",
                  "capacity":1,
                  "service_time_distribution":{"type":"normal", "attrs":{"mean":0.66,"std":0}}
                }
              ]
            }
          ],
          "events":{
            "arrival":[
              {"type":"create_entity", "attrs":{}},
              {"type":"decide", "attrs":{"condition":{"type":"lambda","expression":"{if Random.rand(100) < 40 then true else false end }"},
                "true_step":{"type":"delegate", "attrs":{"in_service_center":"nil", "out_service_center":"service_center1",
                "output_event":"delegate"}},
                "false_step":{"type":"delegate", "attrs":{"in_service_center":"nil", "out_service_center":"service_center2",
                  "output_event":"delegate"}}
              }},
              {"type":"generate_arrival_event", "attrs":{"interarrival_distribution":{"type":"normal", "attrs":{"mean":0.75,"std":0}}}}
            ],
            "departure":[
              {"type":"departure", "attrs":{"service_center":"service_center_3", "output_event":"departure"}},
              {"type":"statistics", "attrs":{
                "service_centers":[{"name":"service_center1"},{"name":"service_center2"},{"name":"service_center_3"}]}
              }
            ],
            "delegate":[
              {"type":"delegate", "attrs":{"in_service_center":"service_center1", "out_service_center":"service_center_3",
                "output_event":"departure"}},
              {"type":"delegate", "attrs":{"in_service_center":"service_center2", "out_service_center":"service_center_3",
                "output_event":"departure"}}
            ]
          },
          "first_event":{
            "type":"arrival",
            "time":0
          }
        }
      }
    }
  }
}